[
    {
    "id" : "1",
    "name" : "Foo 1",
    "email" : "foo1@bar.com",
    "category" : "office supplies",
    "description" : "iPad for office use",
    "link" : "http://www.apple.com/shop/buy-ipad/ipad-pro",
    "estimated_costs" : "700",
    "submit_date" : "12-10-2016"
    },

    {
    "id" : "2",
    "name" : "Foo 2",
    "email" : "foo1@bar.com",
    "category" : "office supplies",
    "description" : "iPad for office use",
    "link" : "http://www.apple.com/shop/buy-ipad/ipad-pro",
    "estimated_costs" : "700",
    "submit_date" : "12-10-2016"
    },

    {
    "id" : "3",
    "name" : "Foo 3",
    "email" : "foo1@bar.com",
    "category" : "office supplies",
    "description" : "iPad for office use",
    "link" : "http://www.apple.com/shop/buy-ipad/ipad-pro",
    "estimated_costs" : "700",
    "submit_date" : "12-10-2016"
    },
    
    {
    "id" : "4",
    "name" : "Foo 4",
    "email" : "foo1@bar.com",
    "category" : "office supplies",
    "description" : "iPad for office use",
    "link" : "http://www.apple.com/shop/buy-ipad/ipad-pro",
    "estimated_costs" : "700",
    "submit_date" : "12-10-2016"
    },

    {
    "id" : "5",
    "name" : "Foo 5",
    "email" : "foo1@bar.com",
    "category" : "office supplies",
    "description" : "iPad for office use",
    "link" : "http://www.apple.com/shop/buy-ipad/ipad-pro",
    "estimated_costs" : "700",
    "submit_date" : "12-10-2016"
    },

    {
    "id" : "6",
    "name" : "Foo 6",
    "email" : "foo1@bar.com",
    "category" : "office supplies",
    "description" : "iPad for office use",
    "link" : "http://www.apple.com/shop/buy-ipad/ipad-pro",
    "estimated_costs" : "700",
    "submit_date" : "12-10-2016"
    },

    {
    "id" : "7",
    "name" : "Foo 7",
    "email" : "foo1@bar.com",
    "category" : "office supplies",
    "description" : "iPad for office use",
    "link" : "http://www.apple.com/shop/buy-ipad/ipad-pro",
    "estimated_costs" : "700",
    "submit_date" : "12-10-2016"
    },
    
    {
    "id" : "8",
    "name" : "Foo 8",
    "email" : "foo1@bar.com",
    "category" : "office supplies",
    "description" : "iPad for office use",
    "link" : "http://www.apple.com/shop/buy-ipad/ipad-pro",
    "estimated_costs" : "700",
    "submit_date" : "12-10-2016"
    },

    {
    "id" : "9",
    "name" : "Foo 9",
    "email" : "foo1@bar.com",
    "category" : "office supplies",
    "description" : "iPad for office use",
    "link" : "http://www.apple.com/shop/buy-ipad/ipad-pro",
    "estimated_costs" : "700",
    "submit_date" : "12-10-2016"
    },

    {
    "id" : "10",
    "name" : "Foo 10",
    "email" : "foo1@bar.com",
    "category" : "office supplies",
    "description" : "iPad for office use",
    "link" : "http://www.apple.com/shop/buy-ipad/ipad-pro",
    "estimated_costs" : "700",
    "submit_date" : "12-10-2016"
    }
]